%YAML 1.1
%TAG !u! tag:unity3d.com,2011:
--- !u!74 &7400000
AnimationClip:
  m_ObjectHideFlags: 0
  m_PrefabParentObject: {fileID: 0}
  m_PrefabInternal: {fileID: 0}
  m_Name: PJ_Alpha2_Vida
  serializedVersion: 6
  m_Legacy: 0
  m_Compressed: 0
  m_UseHighQualityCurve: 1
  m_RotationCurves: []
  m_CompressedRotationCurves: []
  m_EulerCurves: []
  m_PositionCurves: []
  m_ScaleCurves: []
  m_FloatCurves: []
  m_PPtrCurves:
  - curve:
    - time: 0
      value: {fileID: 21300000, guid: 826616808f2bf8e4da439ba0769c15ce, type: 3}
    - time: 0.016666668
      value: {fileID: 21300002, guid: 826616808f2bf8e4da439ba0769c15ce, type: 3}
    - time: 0.033333335
      value: {fileID: 21300004, guid: 826616808f2bf8e4da439ba0769c15ce, type: 3}
    - time: 0.05
      value: {fileID: 21300006, guid: 826616808f2bf8e4da439ba0769c15ce, type: 3}
    - time: 0.06666667
      value: {fileID: 21300008, guid: 826616808f2bf8e4da439ba0769c15ce, type: 3}
    - time: 0.083333336
      value: {fileID: 21300010, guid: 826616808f2bf8e4da439ba0769c15ce, type: 3}
    - time: 0.1
      value: {fileID: 21300012, guid: 826616808f2bf8e4da439ba0769c15ce, type: 3}
    - time: 0.11666667
      value: {fileID: 21300014, guid: 826616808f2bf8e4da439ba0769c15ce, type: 3}
    - time: 0.13333334
      value: {fileID: 21300016, guid: 826616808f2bf8e4da439ba0769c15ce, type: 3}
    - time: 0.15
      value: {fileID: 21300018, guid: 826616808f2bf8e4da439ba0769c15ce, type: 3}
    - time: 0.16666667
      value: {fileID: 21300020, guid: 826616808f2bf8e4da439ba0769c15ce, type: 3}
    - time: 0.18333334
      value: {fileID: 21300022, guid: 826616808f2bf8e4da439ba0769c15ce, type: 3}
    - time: 0.2
      value: {fileID: 21300024, guid: 826616808f2bf8e4da439ba0769c15ce, type: 3}
    - time: 0.21666667
      value: {fileID: 21300026, guid: 826616808f2bf8e4da439ba0769c15ce, type: 3}
    - time: 0.23333333
      value: {fileID: 21300028, guid: 826616808f2bf8e4da439ba0769c15ce, type: 3}
    - time: 0.25
      value: {fileID: 21300030, guid: 826616808f2bf8e4da439ba0769c15ce, type: 3}
    - time: 0.26666668
      value: {fileID: 21300032, guid: 826616808f2bf8e4da439ba0769c15ce, type: 3}
    - time: 0.28333336
      value: {fileID: 21300034, guid: 826616808f2bf8e4da439ba0769c15ce, type: 3}
    - time: 0.30000004
      value: {fileID: 21300036, guid: 826616808f2bf8e4da439ba0769c15ce, type: 3}
    - time: 0.31666672
      value: {fileID: 21300038, guid: 826616808f2bf8e4da439ba0769c15ce, type: 3}
    - time: 0.3333334
      value: {fileID: 21300040, guid: 826616808f2bf8e4da439ba0769c15ce, type: 3}
    - time: 0.35000008
      value: {fileID: 21300042, guid: 826616808f2bf8e4da439ba0769c15ce, type: 3}
    - time: 0.36666676
      value: {fileID: 21300044, guid: 826616808f2bf8e4da439ba0769c15ce, type: 3}
    - time: 0.38333344
      value: {fileID: 21300046, guid: 826616808f2bf8e4da439ba0769c15ce, type: 3}
    - time: 0.40000013
      value: {fileID: 21300048, guid: 826616808f2bf8e4da439ba0769c15ce, type: 3}
    - time: 0.4166668
      value: {fileID: 21300050, guid: 826616808f2bf8e4da439ba0769c15ce, type: 3}
    - time: 0.4333335
      value: {fileID: 21300052, guid: 826616808f2bf8e4da439ba0769c15ce, type: 3}
    - time: 0.45000017
      value: {fileID: 21300054, guid: 826616808f2bf8e4da439ba0769c15ce, type: 3}
    - time: 0.46666685
      value: {fileID: 21300056, guid: 826616808f2bf8e4da439ba0769c15ce, type: 3}
    - time: 0.48333353
      value: {fileID: 21300058, guid: 826616808f2bf8e4da439ba0769c15ce, type: 3}
    - time: 0.5000002
      value: {fileID: 21300060, guid: 826616808f2bf8e4da439ba0769c15ce, type: 3}
    - time: 0.5166668
      value: {fileID: 21300062, guid: 826616808f2bf8e4da439ba0769c15ce, type: 3}
    - time: 0.5333335
      value: {fileID: 21300064, guid: 826616808f2bf8e4da439ba0769c15ce, type: 3}
    - time: 0.55000013
      value: {fileID: 21300066, guid: 826616808f2bf8e4da439ba0769c15ce, type: 3}
    - time: 0.5666668
      value: {fileID: 21300068, guid: 826616808f2bf8e4da439ba0769c15ce, type: 3}
    - time: 0.58333343
      value: {fileID: 21300070, guid: 826616808f2bf8e4da439ba0769c15ce, type: 3}
    - time: 0.6000001
      value: {fileID: 21300072, guid: 826616808f2bf8e4da439ba0769c15ce, type: 3}
    - time: 0.61666673
      value: {fileID: 21300074, guid: 826616808f2bf8e4da439ba0769c15ce, type: 3}
    - time: 0.6333334
      value: {fileID: 21300076, guid: 826616808f2bf8e4da439ba0769c15ce, type: 3}
    - time: 0.65000004
      value: {fileID: 21300078, guid: 826616808f2bf8e4da439ba0769c15ce, type: 3}
    - time: 0.6666667
      value: {fileID: 21300080, guid: 826616808f2bf8e4da439ba0769c15ce, type: 3}
    - time: 0.68333334
      value: {fileID: 21300082, guid: 826616808f2bf8e4da439ba0769c15ce, type: 3}
    - time: 0.7
      value: {fileID: 21300084, guid: 826616808f2bf8e4da439ba0769c15ce, type: 3}
    - time: 0.71666664
      value: {fileID: 21300086, guid: 826616808f2bf8e4da439ba0769c15ce, type: 3}
    - time: 0.7333333
      value: {fileID: 21300088, guid: 826616808f2bf8e4da439ba0769c15ce, type: 3}
    - time: 0.74999994
      value: {fileID: 21300090, guid: 826616808f2bf8e4da439ba0769c15ce, type: 3}
    - time: 0.7666666
      value: {fileID: 21300092, guid: 826616808f2bf8e4da439ba0769c15ce, type: 3}
    - time: 0.78333324
      value: {fileID: 21300094, guid: 826616808f2bf8e4da439ba0769c15ce, type: 3}
    - time: 0.7999999
      value: {fileID: 21300096, guid: 826616808f2bf8e4da439ba0769c15ce, type: 3}
    - time: 0.81666654
      value: {fileID: 21300098, guid: 826616808f2bf8e4da439ba0769c15ce, type: 3}
    - time: 0.8333332
      value: {fileID: 21300100, guid: 826616808f2bf8e4da439ba0769c15ce, type: 3}
    - time: 0.84999985
      value: {fileID: 21300102, guid: 826616808f2bf8e4da439ba0769c15ce, type: 3}
    - time: 0.8666665
      value: {fileID: 21300104, guid: 826616808f2bf8e4da439ba0769c15ce, type: 3}
    - time: 0.88333315
      value: {fileID: 21300106, guid: 826616808f2bf8e4da439ba0769c15ce, type: 3}
    - time: 0.8999998
      value: {fileID: 21300108, guid: 826616808f2bf8e4da439ba0769c15ce, type: 3}
    - time: 0.91666645
      value: {fileID: 21300110, guid: 826616808f2bf8e4da439ba0769c15ce, type: 3}
    - time: 0.9333331
      value: {fileID: 21300112, guid: 826616808f2bf8e4da439ba0769c15ce, type: 3}
    - time: 0.94999975
      value: {fileID: 21300114, guid: 826616808f2bf8e4da439ba0769c15ce, type: 3}
    - time: 0.9666664
      value: {fileID: 21300116, guid: 826616808f2bf8e4da439ba0769c15ce, type: 3}
    - time: 0.98333305
      value: {fileID: 21300118, guid: 826616808f2bf8e4da439ba0769c15ce, type: 3}
    - time: 0.9999997
      value: {fileID: 21300120, guid: 826616808f2bf8e4da439ba0769c15ce, type: 3}
    - time: 1.0166664
      value: {fileID: 21300122, guid: 826616808f2bf8e4da439ba0769c15ce, type: 3}
    - time: 1.0333331
      value: {fileID: 21300124, guid: 826616808f2bf8e4da439ba0769c15ce, type: 3}
    - time: 1.0499997
      value: {fileID: 21300126, guid: 826616808f2bf8e4da439ba0769c15ce, type: 3}
    - time: 1.0666664
      value: {fileID: 21300128, guid: 826616808f2bf8e4da439ba0769c15ce, type: 3}
    - time: 1.083333
      value: {fileID: 21300130, guid: 826616808f2bf8e4da439ba0769c15ce, type: 3}
    - time: 1.0999997
      value: {fileID: 21300132, guid: 826616808f2bf8e4da439ba0769c15ce, type: 3}
    - time: 1.1166663
      value: {fileID: 21300134, guid: 826616808f2bf8e4da439ba0769c15ce, type: 3}
    - time: 1.133333
      value: {fileID: 21300136, guid: 826616808f2bf8e4da439ba0769c15ce, type: 3}
    - time: 1.1499996
      value: {fileID: 21300138, guid: 826616808f2bf8e4da439ba0769c15ce, type: 3}
    - time: 1.1666663
      value: {fileID: 21300140, guid: 826616808f2bf8e4da439ba0769c15ce, type: 3}
    - time: 1.1833329
      value: {fileID: 21300142, guid: 826616808f2bf8e4da439ba0769c15ce, type: 3}
    - time: 1.1999996
      value: {fileID: 21300144, guid: 826616808f2bf8e4da439ba0769c15ce, type: 3}
    - time: 1.2166662
      value: {fileID: 21300146, guid: 826616808f2bf8e4da439ba0769c15ce, type: 3}
    - time: 1.2333329
      value: {fileID: 21300148, guid: 826616808f2bf8e4da439ba0769c15ce, type: 3}
    - time: 1.2499995
      value: {fileID: 21300150, guid: 826616808f2bf8e4da439ba0769c15ce, type: 3}
    - time: 1.2666662
      value: {fileID: 21300152, guid: 826616808f2bf8e4da439ba0769c15ce, type: 3}
    - time: 1.2833328
      value: {fileID: 21300154, guid: 826616808f2bf8e4da439ba0769c15ce, type: 3}
    - time: 1.2999995
      value: {fileID: 21300156, guid: 826616808f2bf8e4da439ba0769c15ce, type: 3}
    - time: 1.3166661
      value: {fileID: 21300158, guid: 826616808f2bf8e4da439ba0769c15ce, type: 3}
    - time: 1.3333328
      value: {fileID: 21300160, guid: 826616808f2bf8e4da439ba0769c15ce, type: 3}
    - time: 1.3499994
      value: {fileID: 21300162, guid: 826616808f2bf8e4da439ba0769c15ce, type: 3}
    - time: 1.3666661
      value: {fileID: 21300164, guid: 826616808f2bf8e4da439ba0769c15ce, type: 3}
    - time: 1.3833327
      value: {fileID: 21300166, guid: 826616808f2bf8e4da439ba0769c15ce, type: 3}
    - time: 1.3999994
      value: {fileID: 21300168, guid: 826616808f2bf8e4da439ba0769c15ce, type: 3}
    - time: 1.416666
      value: {fileID: 21300170, guid: 826616808f2bf8e4da439ba0769c15ce, type: 3}
    - time: 1.4333327
      value: {fileID: 21300172, guid: 826616808f2bf8e4da439ba0769c15ce, type: 3}
    - time: 1.4499993
      value: {fileID: 21300174, guid: 826616808f2bf8e4da439ba0769c15ce, type: 3}
    - time: 1.466666
      value: {fileID: 21300176, guid: 826616808f2bf8e4da439ba0769c15ce, type: 3}
    - time: 1.4833326
      value: {fileID: 21300178, guid: 826616808f2bf8e4da439ba0769c15ce, type: 3}
    - time: 1.4999993
      value: {fileID: 21300180, guid: 826616808f2bf8e4da439ba0769c15ce, type: 3}
    - time: 1.5166659
      value: {fileID: 21300182, guid: 826616808f2bf8e4da439ba0769c15ce, type: 3}
    - time: 1.5333326
      value: {fileID: 21300184, guid: 826616808f2bf8e4da439ba0769c15ce, type: 3}
    - time: 1.5499992
      value: {fileID: 21300186, guid: 826616808f2bf8e4da439ba0769c15ce, type: 3}
    - time: 1.5666659
      value: {fileID: 21300188, guid: 826616808f2bf8e4da439ba0769c15ce, type: 3}
    - time: 1.5833325
      value: {fileID: 21300190, guid: 826616808f2bf8e4da439ba0769c15ce, type: 3}
    - time: 1.5999992
      value: {fileID: 21300192, guid: 826616808f2bf8e4da439ba0769c15ce, type: 3}
    - time: 1.6166658
      value: {fileID: 21300194, guid: 826616808f2bf8e4da439ba0769c15ce, type: 3}
    - time: 1.6333325
      value: {fileID: 21300196, guid: 826616808f2bf8e4da439ba0769c15ce, type: 3}
    - time: 1.6499991
      value: {fileID: 21300198, guid: 826616808f2bf8e4da439ba0769c15ce, type: 3}
    - time: 1.6666658
      value: {fileID: 21300200, guid: 826616808f2bf8e4da439ba0769c15ce, type: 3}
    - time: 1.6833324
      value: {fileID: 21300202, guid: 826616808f2bf8e4da439ba0769c15ce, type: 3}
    - time: 1.6999991
      value: {fileID: 21300204, guid: 826616808f2bf8e4da439ba0769c15ce, type: 3}
    - time: 1.7166657
      value: {fileID: 21300206, guid: 826616808f2bf8e4da439ba0769c15ce, type: 3}
    - time: 1.7333324
      value: {fileID: 21300208, guid: 826616808f2bf8e4da439ba0769c15ce, type: 3}
    - time: 1.749999
      value: {fileID: 21300210, guid: 826616808f2bf8e4da439ba0769c15ce, type: 3}
    - time: 1.7666657
      value: {fileID: 21300212, guid: 826616808f2bf8e4da439ba0769c15ce, type: 3}
    - time: 1.7833323
      value: {fileID: 21300214, guid: 826616808f2bf8e4da439ba0769c15ce, type: 3}
    - time: 1.799999
      value: {fileID: 21300216, guid: 826616808f2bf8e4da439ba0769c15ce, type: 3}
    - time: 1.8166656
      value: {fileID: 21300218, guid: 826616808f2bf8e4da439ba0769c15ce, type: 3}
    - time: 1.8333323
      value: {fileID: 21300220, guid: 826616808f2bf8e4da439ba0769c15ce, type: 3}
    - time: 1.849999
      value: {fileID: 21300222, guid: 826616808f2bf8e4da439ba0769c15ce, type: 3}
    - time: 1.8666656
      value: {fileID: 21300224, guid: 826616808f2bf8e4da439ba0769c15ce, type: 3}
    - time: 1.8833323
      value: {fileID: 21300226, guid: 826616808f2bf8e4da439ba0769c15ce, type: 3}
    - time: 1.8999989
      value: {fileID: 21300228, guid: 826616808f2bf8e4da439ba0769c15ce, type: 3}
    - time: 1.9166656
      value: {fileID: 21300230, guid: 826616808f2bf8e4da439ba0769c15ce, type: 3}
    - time: 1.9333322
      value: {fileID: 21300232, guid: 826616808f2bf8e4da439ba0769c15ce, type: 3}
    - time: 1.9499989
      value: {fileID: 21300234, guid: 826616808f2bf8e4da439ba0769c15ce, type: 3}
    - time: 1.9666655
      value: {fileID: 21300236, guid: 826616808f2bf8e4da439ba0769c15ce, type: 3}
    - time: 1.9833322
      value: {fileID: 21300238, guid: 826616808f2bf8e4da439ba0769c15ce, type: 3}
    - time: 1.9999988
      value: {fileID: 21300240, guid: 826616808f2bf8e4da439ba0769c15ce, type: 3}
    - time: 2.0166655
      value: {fileID: 21300242, guid: 826616808f2bf8e4da439ba0769c15ce, type: 3}
    - time: 2.033332
      value: {fileID: 21300244, guid: 826616808f2bf8e4da439ba0769c15ce, type: 3}
    - time: 2.0499988
      value: {fileID: 21300246, guid: 826616808f2bf8e4da439ba0769c15ce, type: 3}
    - time: 2.0666654
      value: {fileID: 21300248, guid: 826616808f2bf8e4da439ba0769c15ce, type: 3}
    - time: 2.083332
      value: {fileID: 21300250, guid: 826616808f2bf8e4da439ba0769c15ce, type: 3}
    - time: 2.0999987
      value: {fileID: 21300252, guid: 826616808f2bf8e4da439ba0769c15ce, type: 3}
    - time: 2.1166654
      value: {fileID: 21300254, guid: 826616808f2bf8e4da439ba0769c15ce, type: 3}
    - time: 2.133332
      value: {fileID: 21300256, guid: 826616808f2bf8e4da439ba0769c15ce, type: 3}
    - time: 2.1499987
      value: {fileID: 21300258, guid: 826616808f2bf8e4da439ba0769c15ce, type: 3}
    - time: 2.1666653
      value: {fileID: 21300260, guid: 826616808f2bf8e4da439ba0769c15ce, type: 3}
    - time: 2.183332
      value: {fileID: 21300262, guid: 826616808f2bf8e4da439ba0769c15ce, type: 3}
    - time: 2.1999986
      value: {fileID: 21300264, guid: 826616808f2bf8e4da439ba0769c15ce, type: 3}
    - time: 2.2166653
      value: {fileID: 21300266, guid: 826616808f2bf8e4da439ba0769c15ce, type: 3}
    - time: 2.233332
      value: {fileID: 21300268, guid: 826616808f2bf8e4da439ba0769c15ce, type: 3}
    - time: 2.2499986
      value: {fileID: 21300270, guid: 826616808f2bf8e4da439ba0769c15ce, type: 3}
    - time: 2.2666652
      value: {fileID: 21300272, guid: 826616808f2bf8e4da439ba0769c15ce, type: 3}
    - time: 2.2833319
      value: {fileID: 21300274, guid: 826616808f2bf8e4da439ba0769c15ce, type: 3}
    - time: 2.2999985
      value: {fileID: 21300276, guid: 826616808f2bf8e4da439ba0769c15ce, type: 3}
    - time: 2.3166652
      value: {fileID: 21300278, guid: 826616808f2bf8e4da439ba0769c15ce, type: 3}
    - time: 2.3333318
      value: {fileID: 21300280, guid: 826616808f2bf8e4da439ba0769c15ce, type: 3}
    - time: 2.3499985
      value: {fileID: 21300282, guid: 826616808f2bf8e4da439ba0769c15ce, type: 3}
    - time: 2.3666651
      value: {fileID: 21300284, guid: 826616808f2bf8e4da439ba0769c15ce, type: 3}
    - time: 2.3833318
      value: {fileID: 21300286, guid: 826616808f2bf8e4da439ba0769c15ce, type: 3}
    - time: 2.3999984
      value: {fileID: 21300288, guid: 826616808f2bf8e4da439ba0769c15ce, type: 3}
    - time: 2.416665
      value: {fileID: 21300290, guid: 826616808f2bf8e4da439ba0769c15ce, type: 3}
    - time: 2.4333317
      value: {fileID: 21300292, guid: 826616808f2bf8e4da439ba0769c15ce, type: 3}
    - time: 2.4499984
      value: {fileID: 21300294, guid: 826616808f2bf8e4da439ba0769c15ce, type: 3}
    - time: 2.466665
      value: {fileID: 21300296, guid: 826616808f2bf8e4da439ba0769c15ce, type: 3}
    - time: 2.4833317
      value: {fileID: 21300298, guid: 826616808f2bf8e4da439ba0769c15ce, type: 3}
    - time: 2.4999983
      value: {fileID: 21300300, guid: 826616808f2bf8e4da439ba0769c15ce, type: 3}
    - time: 2.516665
      value: {fileID: 21300302, guid: 826616808f2bf8e4da439ba0769c15ce, type: 3}
    - time: 2.5333316
      value: {fileID: 21300304, guid: 826616808f2bf8e4da439ba0769c15ce, type: 3}
    - time: 2.5499983
      value: {fileID: 21300306, guid: 826616808f2bf8e4da439ba0769c15ce, type: 3}
    - time: 2.566665
      value: {fileID: 21300308, guid: 826616808f2bf8e4da439ba0769c15ce, type: 3}
    - time: 2.5833316
      value: {fileID: 21300310, guid: 826616808f2bf8e4da439ba0769c15ce, type: 3}
    - time: 2.5999982
      value: {fileID: 21300312, guid: 826616808f2bf8e4da439ba0769c15ce, type: 3}
    - time: 2.616665
      value: {fileID: 21300314, guid: 826616808f2bf8e4da439ba0769c15ce, type: 3}
    - time: 2.6333315
      value: {fileID: 21300316, guid: 826616808f2bf8e4da439ba0769c15ce, type: 3}
    - time: 2.6499982
      value: {fileID: 21300318, guid: 826616808f2bf8e4da439ba0769c15ce, type: 3}
    - time: 2.6666648
      value: {fileID: 21300320, guid: 826616808f2bf8e4da439ba0769c15ce, type: 3}
    - time: 2.6833315
      value: {fileID: 21300322, guid: 826616808f2bf8e4da439ba0769c15ce, type: 3}
    - time: 2.6999981
      value: {fileID: 21300324, guid: 826616808f2bf8e4da439ba0769c15ce, type: 3}
    - time: 2.7166648
      value: {fileID: 21300326, guid: 826616808f2bf8e4da439ba0769c15ce, type: 3}
    - time: 2.7333314
      value: {fileID: 21300328, guid: 826616808f2bf8e4da439ba0769c15ce, type: 3}
    - time: 2.749998
      value: {fileID: 21300330, guid: 826616808f2bf8e4da439ba0769c15ce, type: 3}
    - time: 2.7666647
      value: {fileID: 21300332, guid: 826616808f2bf8e4da439ba0769c15ce, type: 3}
    - time: 2.7833314
      value: {fileID: 21300334, guid: 826616808f2bf8e4da439ba0769c15ce, type: 3}
    - time: 2.799998
      value: {fileID: 21300336, guid: 826616808f2bf8e4da439ba0769c15ce, type: 3}
    - time: 2.8166647
      value: {fileID: 21300338, guid: 826616808f2bf8e4da439ba0769c15ce, type: 3}
    - time: 2.8333313
      value: {fileID: 21300340, guid: 826616808f2bf8e4da439ba0769c15ce, type: 3}
    - time: 2.849998
      value: {fileID: 21300342, guid: 826616808f2bf8e4da439ba0769c15ce, type: 3}
    - time: 2.8666646
      value: {fileID: 21300344, guid: 826616808f2bf8e4da439ba0769c15ce, type: 3}
    - time: 2.8833313
      value: {fileID: 21300346, guid: 826616808f2bf8e4da439ba0769c15ce, type: 3}
    - time: 2.899998
      value: {fileID: 21300348, guid: 826616808f2bf8e4da439ba0769c15ce, type: 3}
    - time: 2.9166646
      value: {fileID: 21300350, guid: 826616808f2bf8e4da439ba0769c15ce, type: 3}
    - time: 2.9333313
      value: {fileID: 21300352, guid: 826616808f2bf8e4da439ba0769c15ce, type: 3}
    - time: 2.949998
      value: {fileID: 21300354, guid: 826616808f2bf8e4da439ba0769c15ce, type: 3}
    - time: 2.9666646
      value: {fileID: 21300356, guid: 826616808f2bf8e4da439ba0769c15ce, type: 3}
    - time: 2.9833312
      value: {fileID: 21300358, guid: 826616808f2bf8e4da439ba0769c15ce, type: 3}
    - time: 2.9999979
      value: {fileID: 21300360, guid: 826616808f2bf8e4da439ba0769c15ce, type: 3}
    - time: 3.0166645
      value: {fileID: 21300362, guid: 826616808f2bf8e4da439ba0769c15ce, type: 3}
    - time: 3.0333312
      value: {fileID: 21300364, guid: 826616808f2bf8e4da439ba0769c15ce, type: 3}
    - time: 3.0499978
      value: {fileID: 21300366, guid: 826616808f2bf8e4da439ba0769c15ce, type: 3}
    - time: 3.0666645
      value: {fileID: 21300368, guid: 826616808f2bf8e4da439ba0769c15ce, type: 3}
    - time: 3.083331
      value: {fileID: 21300370, guid: 826616808f2bf8e4da439ba0769c15ce, type: 3}
    - time: 3.0999978
      value: {fileID: 21300372, guid: 826616808f2bf8e4da439ba0769c15ce, type: 3}
    - time: 3.1166644
      value: {fileID: 21300374, guid: 826616808f2bf8e4da439ba0769c15ce, type: 3}
    - time: 3.133331
      value: {fileID: 21300376, guid: 826616808f2bf8e4da439ba0769c15ce, type: 3}
    - time: 3.1499977
      value: {fileID: 21300378, guid: 826616808f2bf8e4da439ba0769c15ce, type: 3}
    - time: 3.1666644
      value: {fileID: 21300380, guid: 826616808f2bf8e4da439ba0769c15ce, type: 3}
    - time: 3.183331
      value: {fileID: 21300382, guid: 826616808f2bf8e4da439ba0769c15ce, type: 3}
    - time: 3.1999977
      value: {fileID: 21300384, guid: 826616808f2bf8e4da439ba0769c15ce, type: 3}
    - time: 3.2166643
      value: {fileID: 21300386, guid: 826616808f2bf8e4da439ba0769c15ce, type: 3}
    - time: 3.233331
      value: {fileID: 21300388, guid: 826616808f2bf8e4da439ba0769c15ce, type: 3}
    - time: 3.2499976
      value: {fileID: 21300390, guid: 826616808f2bf8e4da439ba0769c15ce, type: 3}
    - time: 3.2666643
      value: {fileID: 21300392, guid: 826616808f2bf8e4da439ba0769c15ce, type: 3}
    - time: 3.283331
      value: {fileID: 21300394, guid: 826616808f2bf8e4da439ba0769c15ce, type: 3}
    - time: 3.2999976
      value: {fileID: 21300396, guid: 826616808f2bf8e4da439ba0769c15ce, type: 3}
    - time: 3.3166642
      value: {fileID: 21300398, guid: 826616808f2bf8e4da439ba0769c15ce, type: 3}
    - time: 3.3333309
      value: {fileID: 21300400, guid: 826616808f2bf8e4da439ba0769c15ce, type: 3}
    - time: 3.3499975
      value: {fileID: 21300402, guid: 826616808f2bf8e4da439ba0769c15ce, type: 3}
    - time: 3.3666642
      value: {fileID: 21300404, guid: 826616808f2bf8e4da439ba0769c15ce, type: 3}
    - time: 3.3833308
      value: {fileID: 21300406, guid: 826616808f2bf8e4da439ba0769c15ce, type: 3}
    - time: 3.3999975
      value: {fileID: 21300408, guid: 826616808f2bf8e4da439ba0769c15ce, type: 3}
    - time: 3.4166641
      value: {fileID: 21300410, guid: 826616808f2bf8e4da439ba0769c15ce, type: 3}
    - time: 3.4333308
      value: {fileID: 21300412, guid: 826616808f2bf8e4da439ba0769c15ce, type: 3}
    - time: 3.4499974
      value: {fileID: 21300414, guid: 826616808f2bf8e4da439ba0769c15ce, type: 3}
    - time: 3.466664
      value: {fileID: 21300416, guid: 826616808f2bf8e4da439ba0769c15ce, type: 3}
    - time: 3.4833307
      value: {fileID: 21300418, guid: 826616808f2bf8e4da439ba0769c15ce, type: 3}
    - time: 3.4999974
      value: {fileID: 21300420, guid: 826616808f2bf8e4da439ba0769c15ce, type: 3}
    - time: 3.516664
      value: {fileID: 21300422, guid: 826616808f2bf8e4da439ba0769c15ce, type: 3}
    - time: 3.5333307
      value: {fileID: 21300424, guid: 826616808f2bf8e4da439ba0769c15ce, type: 3}
    - time: 3.5499973
      value: {fileID: 21300426, guid: 826616808f2bf8e4da439ba0769c15ce, type: 3}
    - time: 3.566664
      value: {fileID: 21300428, guid: 826616808f2bf8e4da439ba0769c15ce, type: 3}
    - time: 3.5833306
      value: {fileID: 21300430, guid: 826616808f2bf8e4da439ba0769c15ce, type: 3}
    - time: 3.5999973
      value: {fileID: 21300432, guid: 826616808f2bf8e4da439ba0769c15ce, type: 3}
    - time: 3.616664
      value: {fileID: 21300434, guid: 826616808f2bf8e4da439ba0769c15ce, type: 3}
    - time: 3.6333306
      value: {fileID: 21300436, guid: 826616808f2bf8e4da439ba0769c15ce, type: 3}
    - time: 3.6499972
      value: {fileID: 21300438, guid: 826616808f2bf8e4da439ba0769c15ce, type: 3}
    - time: 3.666664
      value: {fileID: 21300440, guid: 826616808f2bf8e4da439ba0769c15ce, type: 3}
    - time: 3.6833305
      value: {fileID: 21300442, guid: 826616808f2bf8e4da439ba0769c15ce, type: 3}
    - time: 3.6999972
      value: {fileID: 21300444, guid: 826616808f2bf8e4da439ba0769c15ce, type: 3}
    - time: 3.7166638
      value: {fileID: 21300446, guid: 826616808f2bf8e4da439ba0769c15ce, type: 3}
    - time: 3.7333305
      value: {fileID: 21300448, guid: 826616808f2bf8e4da439ba0769c15ce, type: 3}
    - time: 3.7499971
      value: {fileID: 21300450, guid: 826616808f2bf8e4da439ba0769c15ce, type: 3}
    - time: 3.7666638
      value: {fileID: 21300452, guid: 826616808f2bf8e4da439ba0769c15ce, type: 3}
    - time: 3.7833304
      value: {fileID: 21300454, guid: 826616808f2bf8e4da439ba0769c15ce, type: 3}
    - time: 3.799997
      value: {fileID: 21300456, guid: 826616808f2bf8e4da439ba0769c15ce, type: 3}
    - time: 3.8166637
      value: {fileID: 21300458, guid: 826616808f2bf8e4da439ba0769c15ce, type: 3}
    - time: 3.8333304
      value: {fileID: 21300460, guid: 826616808f2bf8e4da439ba0769c15ce, type: 3}
    - time: 3.849997
      value: {fileID: 21300462, guid: 826616808f2bf8e4da439ba0769c15ce, type: 3}
    - time: 3.8666637
      value: {fileID: 21300464, guid: 826616808f2bf8e4da439ba0769c15ce, type: 3}
    - time: 3.8833303
      value: {fileID: 21300466, guid: 826616808f2bf8e4da439ba0769c15ce, type: 3}
    - time: 3.899997
      value: {fileID: 21300468, guid: 826616808f2bf8e4da439ba0769c15ce, type: 3}
    - time: 3.9166636
      value: {fileID: 21300470, guid: 826616808f2bf8e4da439ba0769c15ce, type: 3}
    - time: 3.9333303
      value: {fileID: 21300472, guid: 826616808f2bf8e4da439ba0769c15ce, type: 3}
    - time: 3.949997
      value: {fileID: 21300474, guid: 826616808f2bf8e4da439ba0769c15ce, type: 3}
    - time: 3.9666636
      value: {fileID: 21300476, guid: 826616808f2bf8e4da439ba0769c15ce, type: 3}
    - time: 3.9833302
      value: {fileID: 21300478, guid: 826616808f2bf8e4da439ba0769c15ce, type: 3}
    - time: 3.999997
      value: {fileID: 21300480, guid: 826616808f2bf8e4da439ba0769c15ce, type: 3}
    - time: 4.0166636
      value: {fileID: 21300482, guid: 826616808f2bf8e4da439ba0769c15ce, type: 3}
    - time: 4.0333304
      value: {fileID: 21300484, guid: 826616808f2bf8e4da439ba0769c15ce, type: 3}
    - time: 4.0499973
      value: {fileID: 21300486, guid: 826616808f2bf8e4da439ba0769c15ce, type: 3}
    - time: 4.066664
      value: {fileID: 21300488, guid: 826616808f2bf8e4da439ba0769c15ce, type: 3}
    - time: 4.083331
      value: {fileID: 21300490, guid: 826616808f2bf8e4da439ba0769c15ce, type: 3}
    - time: 4.099998
      value: {fileID: 21300492, guid: 826616808f2bf8e4da439ba0769c15ce, type: 3}
    - time: 4.116665
      value: {fileID: 21300494, guid: 826616808f2bf8e4da439ba0769c15ce, type: 3}
    - time: 4.133332
      value: {fileID: 21300496, guid: 826616808f2bf8e4da439ba0769c15ce, type: 3}
    - time: 4.1499987
      value: {fileID: 21300498, guid: 826616808f2bf8e4da439ba0769c15ce, type: 3}
    - time: 4.1666656
      value: {fileID: 21300500, guid: 826616808f2bf8e4da439ba0769c15ce, type: 3}
    - time: 4.1833324
      value: {fileID: 21300502, guid: 826616808f2bf8e4da439ba0769c15ce, type: 3}
    - time: 4.1999993
      value: {fileID: 21300504, guid: 826616808f2bf8e4da439ba0769c15ce, type: 3}
    - time: 4.216666
      value: {fileID: 21300506, guid: 826616808f2bf8e4da439ba0769c15ce, type: 3}
    - time: 4.233333
      value: {fileID: 21300508, guid: 826616808f2bf8e4da439ba0769c15ce, type: 3}
    - time: 4.25
      value: {fileID: 21300510, guid: 826616808f2bf8e4da439ba0769c15ce, type: 3}
    - time: 4.266667
      value: {fileID: 21300512, guid: 826616808f2bf8e4da439ba0769c15ce, type: 3}
    - time: 4.283334
      value: {fileID: 21300514, guid: 826616808f2bf8e4da439ba0769c15ce, type: 3}
    - time: 4.3000007
      value: {fileID: 21300516, guid: 826616808f2bf8e4da439ba0769c15ce, type: 3}
    - time: 4.3166676
      value: {fileID: 21300518, guid: 826616808f2bf8e4da439ba0769c15ce, type: 3}
    - time: 4.3333344
      value: {fileID: 21300520, guid: 826616808f2bf8e4da439ba0769c15ce, type: 3}
    - time: 4.3500013
      value: {fileID: 21300522, guid: 826616808f2bf8e4da439ba0769c15ce, type: 3}
    - time: 4.366668
      value: {fileID: 21300524, guid: 826616808f2bf8e4da439ba0769c15ce, type: 3}
    - time: 4.383335
      value: {fileID: 21300526, guid: 826616808f2bf8e4da439ba0769c15ce, type: 3}
    - time: 4.400002
      value: {fileID: 21300528, guid: 826616808f2bf8e4da439ba0769c15ce, type: 3}
    - time: 4.416669
      value: {fileID: 21300530, guid: 826616808f2bf8e4da439ba0769c15ce, type: 3}
    - time: 4.433336
      value: {fileID: 21300532, guid: 826616808f2bf8e4da439ba0769c15ce, type: 3}
    - time: 4.4500027
      value: {fileID: 21300534, guid: 826616808f2bf8e4da439ba0769c15ce, type: 3}
    - time: 4.4666696
      value: {fileID: 21300536, guid: 826616808f2bf8e4da439ba0769c15ce, type: 3}
    - time: 4.4833364
      value: {fileID: 21300538, guid: 826616808f2bf8e4da439ba0769c15ce, type: 3}
    - time: 4.5000033
      value: {fileID: 21300540, guid: 826616808f2bf8e4da439ba0769c15ce, type: 3}
    - time: 4.51667
      value: {fileID: 21300542, guid: 826616808f2bf8e4da439ba0769c15ce, type: 3}
    - time: 4.533337
      value: {fileID: 21300544, guid: 826616808f2bf8e4da439ba0769c15ce, type: 3}
    - time: 4.550004
      value: {fileID: 21300546, guid: 826616808f2bf8e4da439ba0769c15ce, type: 3}
    - time: 4.566671
      value: {fileID: 21300548, guid: 826616808f2bf8e4da439ba0769c15ce, type: 3}
    - time: 4.583338
      value: {fileID: 21300550, guid: 826616808f2bf8e4da439ba0769c15ce, type: 3}
    - time: 4.6000047
      value: {fileID: 21300552, guid: 826616808f2bf8e4da439ba0769c15ce, type: 3}
    - time: 4.6166716
      value: {fileID: 21300554, guid: 826616808f2bf8e4da439ba0769c15ce, type: 3}
    - time: 4.6333385
      value: {fileID: 21300556, guid: 826616808f2bf8e4da439ba0769c15ce, type: 3}
    - time: 4.6500053
      value: {fileID: 21300558, guid: 826616808f2bf8e4da439ba0769c15ce, type: 3}
    - time: 4.666672
      value: {fileID: 21300560, guid: 826616808f2bf8e4da439ba0769c15ce, type: 3}
    - time: 4.683339
      value: {fileID: 21300562, guid: 826616808f2bf8e4da439ba0769c15ce, type: 3}
    - time: 4.700006
      value: {fileID: 21300564, guid: 826616808f2bf8e4da439ba0769c15ce, type: 3}
    - time: 4.716673
      value: {fileID: 21300566, guid: 826616808f2bf8e4da439ba0769c15ce, type: 3}
    - time: 4.73334
      value: {fileID: 21300568, guid: 826616808f2bf8e4da439ba0769c15ce, type: 3}
    - time: 4.7500067
      value: {fileID: 21300570, guid: 826616808f2bf8e4da439ba0769c15ce, type: 3}
    - time: 4.7666736
      value: {fileID: 21300572, guid: 826616808f2bf8e4da439ba0769c15ce, type: 3}
    - time: 4.7833405
      value: {fileID: 21300574, guid: 826616808f2bf8e4da439ba0769c15ce, type: 3}
    - time: 4.8000073
      value: {fileID: 21300576, guid: 826616808f2bf8e4da439ba0769c15ce, type: 3}
    - time: 4.816674
      value: {fileID: 21300578, guid: 826616808f2bf8e4da439ba0769c15ce, type: 3}
    - time: 4.833341
      value: {fileID: 21300580, guid: 826616808f2bf8e4da439ba0769c15ce, type: 3}
    - time: 4.850008
      value: {fileID: 21300582, guid: 826616808f2bf8e4da439ba0769c15ce, type: 3}
    - time: 4.866675
      value: {fileID: 21300584, guid: 826616808f2bf8e4da439ba0769c15ce, type: 3}
    - time: 4.883342
      value: {fileID: 21300586, guid: 826616808f2bf8e4da439ba0769c15ce, type: 3}
    - time: 4.9000087
      value: {fileID: 21300588, guid: 826616808f2bf8e4da439ba0769c15ce, type: 3}
    - time: 4.9166756
      value: {fileID: 21300590, guid: 826616808f2bf8e4da439ba0769c15ce, type: 3}
    - time: 4.9333425
      value: {fileID: 21300592, guid: 826616808f2bf8e4da439ba0769c15ce, type: 3}
    - time: 4.9500093
      value: {fileID: 21300594, guid: 826616808f2bf8e4da439ba0769c15ce, type: 3}
    - time: 4.966676
      value: {fileID: 21300596, guid: 826616808f2bf8e4da439ba0769c15ce, type: 3}
    - time: 4.983343
      value: {fileID: 21300598, guid: 826616808f2bf8e4da439ba0769c15ce, type: 3}
    - time: 5.00001
      value: {fileID: 21300600, guid: 826616808f2bf8e4da439ba0769c15ce, type: 3}
    - time: 5.016677
      value: {fileID: 21300602, guid: 826616808f2bf8e4da439ba0769c15ce, type: 3}
    - time: 5.033344
      value: {fileID: 21300604, guid: 826616808f2bf8e4da439ba0769c15ce, type: 3}
    - time: 5.0500107
      value: {fileID: 21300606, guid: 826616808f2bf8e4da439ba0769c15ce, type: 3}
    - time: 5.0666776
      value: {fileID: 21300608, guid: 826616808f2bf8e4da439ba0769c15ce, type: 3}
    - time: 5.0833445
      value: {fileID: 21300610, guid: 826616808f2bf8e4da439ba0769c15ce, type: 3}
    - time: 5.1000113
      value: {fileID: 21300612, guid: 826616808f2bf8e4da439ba0769c15ce, type: 3}
    - time: 5.116678
      value: {fileID: 21300614, guid: 826616808f2bf8e4da439ba0769c15ce, type: 3}
    - time: 5.133345
      value: {fileID: 21300616, guid: 826616808f2bf8e4da439ba0769c15ce, type: 3}
    - time: 5.150012
      value: {fileID: 21300618, guid: 826616808f2bf8e4da439ba0769c15ce, type: 3}
    - time: 5.166679
      value: {fileID: 21300620, guid: 826616808f2bf8e4da439ba0769c15ce, type: 3}
    - time: 5.183346
      value: {fileID: 21300622, guid: 826616808f2bf8e4da439ba0769c15ce, type: 3}
    - time: 5.2000127
      value: {fileID: 21300624, guid: 826616808f2bf8e4da439ba0769c15ce, type: 3}
    - time: 5.2166796
      value: {fileID: 21300626, guid: 826616808f2bf8e4da439ba0769c15ce, type: 3}
    - time: 5.2333465
      value: {fileID: 21300628, guid: 826616808f2bf8e4da439ba0769c15ce, type: 3}
    - time: 5.2500134
      value: {fileID: 21300630, guid: 826616808f2bf8e4da439ba0769c15ce, type: 3}
    - time: 5.2666802
      value: {fileID: 21300632, guid: 826616808f2bf8e4da439ba0769c15ce, type: 3}
    - time: 5.283347
      value: {fileID: 21300634, guid: 826616808f2bf8e4da439ba0769c15ce, type: 3}
    - time: 5.300014
      value: {fileID: 21300636, guid: 826616808f2bf8e4da439ba0769c15ce, type: 3}
    - time: 5.316681
      value: {fileID: 21300638, guid: 826616808f2bf8e4da439ba0769c15ce, type: 3}
    - time: 5.333348
      value: {fileID: 21300640, guid: 826616808f2bf8e4da439ba0769c15ce, type: 3}
    - time: 5.3500147
      value: {fileID: 21300642, guid: 826616808f2bf8e4da439ba0769c15ce, type: 3}
    - time: 5.3666816
      value: {fileID: 21300644, guid: 826616808f2bf8e4da439ba0769c15ce, type: 3}
    - time: 5.3833485
      value: {fileID: 21300646, guid: 826616808f2bf8e4da439ba0769c15ce, type: 3}
    - time: 5.4000154
      value: {fileID: 21300648, guid: 826616808f2bf8e4da439ba0769c15ce, type: 3}
    - time: 5.4166822
      value: {fileID: 21300650, guid: 826616808f2bf8e4da439ba0769c15ce, type: 3}
    - time: 5.433349
      value: {fileID: 21300652, guid: 826616808f2bf8e4da439ba0769c15ce, type: 3}
    - time: 5.450016
      value: {fileID: 21300654, guid: 826616808f2bf8e4da439ba0769c15ce, type: 3}
    - time: 5.466683
      value: {fileID: 21300656, guid: 826616808f2bf8e4da439ba0769c15ce, type: 3}
    - time: 5.48335
      value: {fileID: 21300658, guid: 826616808f2bf8e4da439ba0769c15ce, type: 3}
    - time: 5.5000167
      value: {fileID: 21300660, guid: 826616808f2bf8e4da439ba0769c15ce, type: 3}
    - time: 5.5166836
      value: {fileID: 21300662, guid: 826616808f2bf8e4da439ba0769c15ce, type: 3}
    - time: 5.5333505
      value: {fileID: 21300664, guid: 826616808f2bf8e4da439ba0769c15ce, type: 3}
    - time: 5.5500174
      value: {fileID: 21300666, guid: 826616808f2bf8e4da439ba0769c15ce, type: 3}
    - time: 5.5666842
      value: {fileID: 21300668, guid: 826616808f2bf8e4da439ba0769c15ce, type: 3}
    - time: 5.583351
      value: {fileID: 21300670, guid: 826616808f2bf8e4da439ba0769c15ce, type: 3}
    - time: 5.600018
      value: {fileID: 21300672, guid: 826616808f2bf8e4da439ba0769c15ce, type: 3}
    - time: 5.616685
      value: {fileID: 21300674, guid: 826616808f2bf8e4da439ba0769c15ce, type: 3}
    - time: 5.633352
      value: {fileID: 21300676, guid: 826616808f2bf8e4da439ba0769c15ce, type: 3}
    - time: 5.6500187
      value: {fileID: 21300678, guid: 826616808f2bf8e4da439ba0769c15ce, type: 3}
    - time: 5.6666856
      value: {fileID: 21300680, guid: 826616808f2bf8e4da439ba0769c15ce, type: 3}
    - time: 5.6833525
      value: {fileID: 21300682, guid: 826616808f2bf8e4da439ba0769c15ce, type: 3}
    - time: 5.7000194
      value: {fileID: 21300684, guid: 826616808f2bf8e4da439ba0769c15ce, type: 3}
    - time: 5.7166862
      value: {fileID: 21300686, guid: 826616808f2bf8e4da439ba0769c15ce, type: 3}
    - time: 5.733353
      value: {fileID: 21300688, guid: 826616808f2bf8e4da439ba0769c15ce, type: 3}
    - time: 5.75002
      value: {fileID: 21300690, guid: 826616808f2bf8e4da439ba0769c15ce, type: 3}
    - time: 5.766687
      value: {fileID: 21300692, guid: 826616808f2bf8e4da439ba0769c15ce, type: 3}
    - time: 5.783354
      value: {fileID: 21300694, guid: 826616808f2bf8e4da439ba0769c15ce, type: 3}
    - time: 5.8000207
      value: {fileID: 21300696, guid: 826616808f2bf8e4da439ba0769c15ce, type: 3}
    - time: 5.8166876
      value: {fileID: 21300698, guid: 826616808f2bf8e4da439ba0769c15ce, type: 3}
    - time: 5.8333545
      value: {fileID: 21300700, guid: 826616808f2bf8e4da439ba0769c15ce, type: 3}
    - time: 5.8500214
      value: {fileID: 21300702, guid: 826616808f2bf8e4da439ba0769c15ce, type: 3}
    - time: 5.8666883
      value: {fileID: 21300704, guid: 826616808f2bf8e4da439ba0769c15ce, type: 3}
    - time: 5.883355
      value: {fileID: 21300706, guid: 826616808f2bf8e4da439ba0769c15ce, type: 3}
    - time: 5.900022
      value: {fileID: 21300708, guid: 826616808f2bf8e4da439ba0769c15ce, type: 3}
    - time: 5.916689
      value: {fileID: 21300710, guid: 826616808f2bf8e4da439ba0769c15ce, type: 3}
    attribute: m_Sprite
    path: 
    classID: 114
    script: {fileID: -765806418, guid: f70555f144d8491a825f0804e09c671c, type: 3}
  m_SampleRate: 60
  m_WrapMode: 0
  m_Bounds:
    m_Center: {x: 0, y: 0, z: 0}
    m_Extent: {x: 0, y: 0, z: 0}
  m_ClipBindingConstant:
    genericBindings:
    - serializedVersion: 2
      path: 0
      attribute: 2015549526
      script: {fileID: -765806418, guid: f70555f144d8491a825f0804e09c671c, type: 3}
      typeID: 114
      customType: 0
      isPPtrCurve: 1
    pptrCurveMapping:
    - {fileID: 21300000, guid: 826616808f2bf8e4da439ba0769c15ce, type: 3}
    - {fileID: 21300002, guid: 826616808f2bf8e4da439ba0769c15ce, type: 3}
    - {fileID: 21300004, guid: 826616808f2bf8e4da439ba0769c15ce, type: 3}
    - {fileID: 21300006, guid: 826616808f2bf8e4da439ba0769c15ce, type: 3}
    - {fileID: 21300008, guid: 826616808f2bf8e4da439ba0769c15ce, type: 3}
    - {fileID: 21300010, guid: 826616808f2bf8e4da439ba0769c15ce, type: 3}
    - {fileID: 21300012, guid: 826616808f2bf8e4da439ba0769c15ce, type: 3}
    - {fileID: 21300014, guid: 826616808f2bf8e4da439ba0769c15ce, type: 3}
    - {fileID: 21300016, guid: 826616808f2bf8e4da439ba0769c15ce, type: 3}
    - {fileID: 21300018, guid: 826616808f2bf8e4da439ba0769c15ce, type: 3}
    - {fileID: 21300020, guid: 826616808f2bf8e4da439ba0769c15ce, type: 3}
    - {fileID: 21300022, guid: 826616808f2bf8e4da439ba0769c15ce, type: 3}
    - {fileID: 21300024, guid: 826616808f2bf8e4da439ba0769c15ce, type: 3}
    - {fileID: 21300026, guid: 826616808f2bf8e4da439ba0769c15ce, type: 3}
    - {fileID: 21300028, guid: 826616808f2bf8e4da439ba0769c15ce, type: 3}
    - {fileID: 21300030, guid: 826616808f2bf8e4da439ba0769c15ce, type: 3}
    - {fileID: 21300032, guid: 826616808f2bf8e4da439ba0769c15ce, type: 3}
    - {fileID: 21300034, guid: 826616808f2bf8e4da439ba0769c15ce, type: 3}
    - {fileID: 21300036, guid: 826616808f2bf8e4da439ba0769c15ce, type: 3}
    - {fileID: 21300038, guid: 826616808f2bf8e4da439ba0769c15ce, type: 3}
    - {fileID: 21300040, guid: 826616808f2bf8e4da439ba0769c15ce, type: 3}
    - {fileID: 21300042, guid: 826616808f2bf8e4da439ba0769c15ce, type: 3}
    - {fileID: 21300044, guid: 826616808f2bf8e4da439ba0769c15ce, type: 3}
    - {fileID: 21300046, guid: 826616808f2bf8e4da439ba0769c15ce, type: 3}
    - {fileID: 21300048, guid: 826616808f2bf8e4da439ba0769c15ce, type: 3}
    - {fileID: 21300050, guid: 826616808f2bf8e4da439ba0769c15ce, type: 3}
    - {fileID: 21300052, guid: 826616808f2bf8e4da439ba0769c15ce, type: 3}
    - {fileID: 21300054, guid: 826616808f2bf8e4da439ba0769c15ce, type: 3}
    - {fileID: 21300056, guid: 826616808f2bf8e4da439ba0769c15ce, type: 3}
    - {fileID: 21300058, guid: 826616808f2bf8e4da439ba0769c15ce, type: 3}
    - {fileID: 21300060, guid: 826616808f2bf8e4da439ba0769c15ce, type: 3}
    - {fileID: 21300062, guid: 826616808f2bf8e4da439ba0769c15ce, type: 3}
    - {fileID: 21300064, guid: 826616808f2bf8e4da439ba0769c15ce, type: 3}
    - {fileID: 21300066, guid: 826616808f2bf8e4da439ba0769c15ce, type: 3}
    - {fileID: 21300068, guid: 826616808f2bf8e4da439ba0769c15ce, type: 3}
    - {fileID: 21300070, guid: 826616808f2bf8e4da439ba0769c15ce, type: 3}
    - {fileID: 21300072, guid: 826616808f2bf8e4da439ba0769c15ce, type: 3}
    - {fileID: 21300074, guid: 826616808f2bf8e4da439ba0769c15ce, type: 3}
    - {fileID: 21300076, guid: 826616808f2bf8e4da439ba0769c15ce, type: 3}
    - {fileID: 21300078, guid: 826616808f2bf8e4da439ba0769c15ce, type: 3}
    - {fileID: 21300080, guid: 826616808f2bf8e4da439ba0769c15ce, type: 3}
    - {fileID: 21300082, guid: 826616808f2bf8e4da439ba0769c15ce, type: 3}
    - {fileID: 21300084, guid: 826616808f2bf8e4da439ba0769c15ce, type: 3}
    - {fileID: 21300086, guid: 826616808f2bf8e4da439ba0769c15ce, type: 3}
    - {fileID: 21300088, guid: 826616808f2bf8e4da439ba0769c15ce, type: 3}
    - {fileID: 21300090, guid: 826616808f2bf8e4da439ba0769c15ce, type: 3}
    - {fileID: 21300092, guid: 826616808f2bf8e4da439ba0769c15ce, type: 3}
    - {fileID: 21300094, guid: 826616808f2bf8e4da439ba0769c15ce, type: 3}
    - {fileID: 21300096, guid: 826616808f2bf8e4da439ba0769c15ce, type: 3}
    - {fileID: 21300098, guid: 826616808f2bf8e4da439ba0769c15ce, type: 3}
    - {fileID: 21300100, guid: 826616808f2bf8e4da439ba0769c15ce, type: 3}
    - {fileID: 21300102, guid: 826616808f2bf8e4da439ba0769c15ce, type: 3}
    - {fileID: 21300104, guid: 826616808f2bf8e4da439ba0769c15ce, type: 3}
    - {fileID: 21300106, guid: 826616808f2bf8e4da439ba0769c15ce, type: 3}
    - {fileID: 21300108, guid: 826616808f2bf8e4da439ba0769c15ce, type: 3}
    - {fileID: 21300110, guid: 826616808f2bf8e4da439ba0769c15ce, type: 3}
    - {fileID: 21300112, guid: 826616808f2bf8e4da439ba0769c15ce, type: 3}
    - {fileID: 21300114, guid: 826616808f2bf8e4da439ba0769c15ce, type: 3}
    - {fileID: 21300116, guid: 826616808f2bf8e4da439ba0769c15ce, type: 3}
    - {fileID: 21300118, guid: 826616808f2bf8e4da439ba0769c15ce, type: 3}
    - {fileID: 21300120, guid: 826616808f2bf8e4da439ba0769c15ce, type: 3}
    - {fileID: 21300122, guid: 826616808f2bf8e4da439ba0769c15ce, type: 3}
    - {fileID: 21300124, guid: 826616808f2bf8e4da439ba0769c15ce, type: 3}
    - {fileID: 21300126, guid: 826616808f2bf8e4da439ba0769c15ce, type: 3}
    - {fileID: 21300128, guid: 826616808f2bf8e4da439ba0769c15ce, type: 3}
    - {fileID: 21300130, guid: 826616808f2bf8e4da439ba0769c15ce, type: 3}
    - {fileID: 21300132, guid: 826616808f2bf8e4da439ba0769c15ce, type: 3}
    - {fileID: 21300134, guid: 826616808f2bf8e4da439ba0769c15ce, type: 3}
    - {fileID: 21300136, guid: 826616808f2bf8e4da439ba0769c15ce, type: 3}
    - {fileID: 21300138, guid: 826616808f2bf8e4da439ba0769c15ce, type: 3}
    - {fileID: 21300140, guid: 826616808f2bf8e4da439ba0769c15ce, type: 3}
    - {fileID: 21300142, guid: 826616808f2bf8e4da439ba0769c15ce, type: 3}
    - {fileID: 21300144, guid: 826616808f2bf8e4da439ba0769c15ce, type: 3}
    - {fileID: 21300146, guid: 826616808f2bf8e4da439ba0769c15ce, type: 3}
    - {fileID: 21300148, guid: 826616808f2bf8e4da439ba0769c15ce, type: 3}
    - {fileID: 21300150, guid: 826616808f2bf8e4da439ba0769c15ce, type: 3}
    - {fileID: 21300152, guid: 826616808f2bf8e4da439ba0769c15ce, type: 3}
    - {fileID: 21300154, guid: 826616808f2bf8e4da439ba0769c15ce, type: 3}
    - {fileID: 21300156, guid: 826616808f2bf8e4da439ba0769c15ce, type: 3}
    - {fileID: 21300158, guid: 826616808f2bf8e4da439ba0769c15ce, type: 3}
    - {fileID: 21300160, guid: 826616808f2bf8e4da439ba0769c15ce, type: 3}
    - {fileID: 21300162, guid: 826616808f2bf8e4da439ba0769c15ce, type: 3}
    - {fileID: 21300164, guid: 826616808f2bf8e4da439ba0769c15ce, type: 3}
    - {fileID: 21300166, guid: 826616808f2bf8e4da439ba0769c15ce, type: 3}
    - {fileID: 21300168, guid: 826616808f2bf8e4da439ba0769c15ce, type: 3}
    - {fileID: 21300170, guid: 826616808f2bf8e4da439ba0769c15ce, type: 3}
    - {fileID: 21300172, guid: 826616808f2bf8e4da439ba0769c15ce, type: 3}
    - {fileID: 21300174, guid: 826616808f2bf8e4da439ba0769c15ce, type: 3}
    - {fileID: 21300176, guid: 826616808f2bf8e4da439ba0769c15ce, type: 3}
    - {fileID: 21300178, guid: 826616808f2bf8e4da439ba0769c15ce, type: 3}
    - {fileID: 21300180, guid: 826616808f2bf8e4da439ba0769c15ce, type: 3}
    - {fileID: 21300182, guid: 826616808f2bf8e4da439ba0769c15ce, type: 3}
    - {fileID: 21300184, guid: 826616808f2bf8e4da439ba0769c15ce, type: 3}
    - {fileID: 21300186, guid: 826616808f2bf8e4da439ba0769c15ce, type: 3}
    - {fileID: 21300188, guid: 826616808f2bf8e4da439ba0769c15ce, type: 3}
    - {fileID: 21300190, guid: 826616808f2bf8e4da439ba0769c15ce, type: 3}
    - {fileID: 21300192, guid: 826616808f2bf8e4da439ba0769c15ce, type: 3}
    - {fileID: 21300194, guid: 826616808f2bf8e4da439ba0769c15ce, type: 3}
    - {fileID: 21300196, guid: 826616808f2bf8e4da439ba0769c15ce, type: 3}
    - {fileID: 21300198, guid: 826616808f2bf8e4da439ba0769c15ce, type: 3}
    - {fileID: 21300200, guid: 826616808f2bf8e4da439ba0769c15ce, type: 3}
    - {fileID: 21300202, guid: 826616808f2bf8e4da439ba0769c15ce, type: 3}
    - {fileID: 21300204, guid: 826616808f2bf8e4da439ba0769c15ce, type: 3}
    - {fileID: 21300206, guid: 826616808f2bf8e4da439ba0769c15ce, type: 3}
    - {fileID: 21300208, guid: 826616808f2bf8e4da439ba0769c15ce, type: 3}
    - {fileID: 21300210, guid: 826616808f2bf8e4da439ba0769c15ce, type: 3}
    - {fileID: 21300212, guid: 826616808f2bf8e4da439ba0769c15ce, type: 3}
    - {fileID: 21300214, guid: 826616808f2bf8e4da439ba0769c15ce, type: 3}
    - {fileID: 21300216, guid: 826616808f2bf8e4da439ba0769c15ce, type: 3}
    - {fileID: 21300218, guid: 826616808f2bf8e4da439ba0769c15ce, type: 3}
    - {fileID: 21300220, guid: 826616808f2bf8e4da439ba0769c15ce, type: 3}
    - {fileID: 21300222, guid: 826616808f2bf8e4da439ba0769c15ce, type: 3}
    - {fileID: 21300224, guid: 826616808f2bf8e4da439ba0769c15ce, type: 3}
    - {fileID: 21300226, guid: 826616808f2bf8e4da439ba0769c15ce, type: 3}
    - {fileID: 21300228, guid: 826616808f2bf8e4da439ba0769c15ce, type: 3}
    - {fileID: 21300230, guid: 826616808f2bf8e4da439ba0769c15ce, type: 3}
    - {fileID: 21300232, guid: 826616808f2bf8e4da439ba0769c15ce, type: 3}
    - {fileID: 21300234, guid: 826616808f2bf8e4da439ba0769c15ce, type: 3}
    - {fileID: 21300236, guid: 826616808f2bf8e4da439ba0769c15ce, type: 3}
    - {fileID: 21300238, guid: 826616808f2bf8e4da439ba0769c15ce, type: 3}
    - {fileID: 21300240, guid: 826616808f2bf8e4da439ba0769c15ce, type: 3}
    - {fileID: 21300242, guid: 826616808f2bf8e4da439ba0769c15ce, type: 3}
    - {fileID: 21300244, guid: 826616808f2bf8e4da439ba0769c15ce, type: 3}
    - {fileID: 21300246, guid: 826616808f2bf8e4da439ba0769c15ce, type: 3}
    - {fileID: 21300248, guid: 826616808f2bf8e4da439ba0769c15ce, type: 3}
    - {fileID: 21300250, guid: 826616808f2bf8e4da439ba0769c15ce, type: 3}
    - {fileID: 21300252, guid: 826616808f2bf8e4da439ba0769c15ce, type: 3}
    - {fileID: 21300254, guid: 826616808f2bf8e4da439ba0769c15ce, type: 3}
    - {fileID: 21300256, guid: 826616808f2bf8e4da439ba0769c15ce, type: 3}
    - {fileID: 21300258, guid: 826616808f2bf8e4da439ba0769c15ce, type: 3}
    - {fileID: 21300260, guid: 826616808f2bf8e4da439ba0769c15ce, type: 3}
    - {fileID: 21300262, guid: 826616808f2bf8e4da439ba0769c15ce, type: 3}
    - {fileID: 21300264, guid: 826616808f2bf8e4da439ba0769c15ce, type: 3}
    - {fileID: 21300266, guid: 826616808f2bf8e4da439ba0769c15ce, type: 3}
    - {fileID: 21300268, guid: 826616808f2bf8e4da439ba0769c15ce, type: 3}
    - {fileID: 21300270, guid: 826616808f2bf8e4da439ba0769c15ce, type: 3}
    - {fileID: 21300272, guid: 826616808f2bf8e4da439ba0769c15ce, type: 3}
    - {fileID: 21300274, guid: 826616808f2bf8e4da439ba0769c15ce, type: 3}
    - {fileID: 21300276, guid: 826616808f2bf8e4da439ba0769c15ce, type: 3}
    - {fileID: 21300278, guid: 826616808f2bf8e4da439ba0769c15ce, type: 3}
    - {fileID: 21300280, guid: 826616808f2bf8e4da439ba0769c15ce, type: 3}
    - {fileID: 21300282, guid: 826616808f2bf8e4da439ba0769c15ce, type: 3}
    - {fileID: 21300284, guid: 826616808f2bf8e4da439ba0769c15ce, type: 3}
    - {fileID: 21300286, guid: 826616808f2bf8e4da439ba0769c15ce, type: 3}
    - {fileID: 21300288, guid: 826616808f2bf8e4da439ba0769c15ce, type: 3}
    - {fileID: 21300290, guid: 826616808f2bf8e4da439ba0769c15ce, type: 3}
    - {fileID: 21300292, guid: 826616808f2bf8e4da439ba0769c15ce, type: 3}
    - {fileID: 21300294, guid: 826616808f2bf8e4da439ba0769c15ce, type: 3}
    - {fileID: 21300296, guid: 826616808f2bf8e4da439ba0769c15ce, type: 3}
    - {fileID: 21300298, guid: 826616808f2bf8e4da439ba0769c15ce, type: 3}
    - {fileID: 21300300, guid: 826616808f2bf8e4da439ba0769c15ce, type: 3}
    - {fileID: 21300302, guid: 826616808f2bf8e4da439ba0769c15ce, type: 3}
    - {fileID: 21300304, guid: 826616808f2bf8e4da439ba0769c15ce, type: 3}
    - {fileID: 21300306, guid: 826616808f2bf8e4da439ba0769c15ce, type: 3}
    - {fileID: 21300308, guid: 826616808f2bf8e4da439ba0769c15ce, type: 3}
    - {fileID: 21300310, guid: 826616808f2bf8e4da439ba0769c15ce, type: 3}
    - {fileID: 21300312, guid: 826616808f2bf8e4da439ba0769c15ce, type: 3}
    - {fileID: 21300314, guid: 826616808f2bf8e4da439ba0769c15ce, type: 3}
    - {fileID: 21300316, guid: 826616808f2bf8e4da439ba0769c15ce, type: 3}
    - {fileID: 21300318, guid: 826616808f2bf8e4da439ba0769c15ce, type: 3}
    - {fileID: 21300320, guid: 826616808f2bf8e4da439ba0769c15ce, type: 3}
    - {fileID: 21300322, guid: 826616808f2bf8e4da439ba0769c15ce, type: 3}
    - {fileID: 21300324, guid: 826616808f2bf8e4da439ba0769c15ce, type: 3}
    - {fileID: 21300326, guid: 826616808f2bf8e4da439ba0769c15ce, type: 3}
    - {fileID: 21300328, guid: 826616808f2bf8e4da439ba0769c15ce, type: 3}
    - {fileID: 21300330, guid: 826616808f2bf8e4da439ba0769c15ce, type: 3}
    - {fileID: 21300332, guid: 826616808f2bf8e4da439ba0769c15ce, type: 3}
    - {fileID: 21300334, guid: 826616808f2bf8e4da439ba0769c15ce, type: 3}
    - {fileID: 21300336, guid: 826616808f2bf8e4da439ba0769c15ce, type: 3}
    - {fileID: 21300338, guid: 826616808f2bf8e4da439ba0769c15ce, type: 3}
    - {fileID: 21300340, guid: 826616808f2bf8e4da439ba0769c15ce, type: 3}
    - {fileID: 21300342, guid: 826616808f2bf8e4da439ba0769c15ce, type: 3}
    - {fileID: 21300344, guid: 826616808f2bf8e4da439ba0769c15ce, type: 3}
    - {fileID: 21300346, guid: 826616808f2bf8e4da439ba0769c15ce, type: 3}
    - {fileID: 21300348, guid: 826616808f2bf8e4da439ba0769c15ce, type: 3}
    - {fileID: 21300350, guid: 826616808f2bf8e4da439ba0769c15ce, type: 3}
    - {fileID: 21300352, guid: 826616808f2bf8e4da439ba0769c15ce, type: 3}
    - {fileID: 21300354, guid: 826616808f2bf8e4da439ba0769c15ce, type: 3}
    - {fileID: 21300356, guid: 826616808f2bf8e4da439ba0769c15ce, type: 3}
    - {fileID: 21300358, guid: 826616808f2bf8e4da439ba0769c15ce, type: 3}
    - {fileID: 21300360, guid: 826616808f2bf8e4da439ba0769c15ce, type: 3}
    - {fileID: 21300362, guid: 826616808f2bf8e4da439ba0769c15ce, type: 3}
    - {fileID: 21300364, guid: 826616808f2bf8e4da439ba0769c15ce, type: 3}
    - {fileID: 21300366, guid: 826616808f2bf8e4da439ba0769c15ce, type: 3}
    - {fileID: 21300368, guid: 826616808f2bf8e4da439ba0769c15ce, type: 3}
    - {fileID: 21300370, guid: 826616808f2bf8e4da439ba0769c15ce, type: 3}
    - {fileID: 21300372, guid: 826616808f2bf8e4da439ba0769c15ce, type: 3}
    - {fileID: 21300374, guid: 826616808f2bf8e4da439ba0769c15ce, type: 3}
    - {fileID: 21300376, guid: 826616808f2bf8e4da439ba0769c15ce, type: 3}
    - {fileID: 21300378, guid: 826616808f2bf8e4da439ba0769c15ce, type: 3}
    - {fileID: 21300380, guid: 826616808f2bf8e4da439ba0769c15ce, type: 3}
    - {fileID: 21300382, guid: 826616808f2bf8e4da439ba0769c15ce, type: 3}
    - {fileID: 21300384, guid: 826616808f2bf8e4da439ba0769c15ce, type: 3}
    - {fileID: 21300386, guid: 826616808f2bf8e4da439ba0769c15ce, type: 3}
    - {fileID: 21300388, guid: 826616808f2bf8e4da439ba0769c15ce, type: 3}
    - {fileID: 21300390, guid: 826616808f2bf8e4da439ba0769c15ce, type: 3}
    - {fileID: 21300392, guid: 826616808f2bf8e4da439ba0769c15ce, type: 3}
    - {fileID: 21300394, guid: 826616808f2bf8e4da439ba0769c15ce, type: 3}
    - {fileID: 21300396, guid: 826616808f2bf8e4da439ba0769c15ce, type: 3}
    - {fileID: 21300398, guid: 826616808f2bf8e4da439ba0769c15ce, type: 3}
    - {fileID: 21300400, guid: 826616808f2bf8e4da439ba0769c15ce, type: 3}
    - {fileID: 21300402, guid: 826616808f2bf8e4da439ba0769c15ce, type: 3}
    - {fileID: 21300404, guid: 826616808f2bf8e4da439ba0769c15ce, type: 3}
    - {fileID: 21300406, guid: 826616808f2bf8e4da439ba0769c15ce, type: 3}
    - {fileID: 21300408, guid: 826616808f2bf8e4da439ba0769c15ce, type: 3}
    - {fileID: 21300410, guid: 826616808f2bf8e4da439ba0769c15ce, type: 3}
    - {fileID: 21300412, guid: 826616808f2bf8e4da439ba0769c15ce, type: 3}
    - {fileID: 21300414, guid: 826616808f2bf8e4da439ba0769c15ce, type: 3}
    - {fileID: 21300416, guid: 826616808f2bf8e4da439ba0769c15ce, type: 3}
    - {fileID: 21300418, guid: 826616808f2bf8e4da439ba0769c15ce, type: 3}
    - {fileID: 21300420, guid: 826616808f2bf8e4da439ba0769c15ce, type: 3}
    - {fileID: 21300422, guid: 826616808f2bf8e4da439ba0769c15ce, type: 3}
    - {fileID: 21300424, guid: 826616808f2bf8e4da439ba0769c15ce, type: 3}
    - {fileID: 21300426, guid: 826616808f2bf8e4da439ba0769c15ce, type: 3}
    - {fileID: 21300428, guid: 826616808f2bf8e4da439ba0769c15ce, type: 3}
    - {fileID: 21300430, guid: 826616808f2bf8e4da439ba0769c15ce, type: 3}
    - {fileID: 21300432, guid: 826616808f2bf8e4da439ba0769c15ce, type: 3}
    - {fileID: 21300434, guid: 826616808f2bf8e4da439ba0769c15ce, type: 3}
    - {fileID: 21300436, guid: 826616808f2bf8e4da439ba0769c15ce, type: 3}
    - {fileID: 21300438, guid: 826616808f2bf8e4da439ba0769c15ce, type: 3}
    - {fileID: 21300440, guid: 826616808f2bf8e4da439ba0769c15ce, type: 3}
    - {fileID: 21300442, guid: 826616808f2bf8e4da439ba0769c15ce, type: 3}
    - {fileID: 21300444, guid: 826616808f2bf8e4da439ba0769c15ce, type: 3}
    - {fileID: 21300446, guid: 826616808f2bf8e4da439ba0769c15ce, type: 3}
    - {fileID: 21300448, guid: 826616808f2bf8e4da439ba0769c15ce, type: 3}
    - {fileID: 21300450, guid: 826616808f2bf8e4da439ba0769c15ce, type: 3}
    - {fileID: 21300452, guid: 826616808f2bf8e4da439ba0769c15ce, type: 3}
    - {fileID: 21300454, guid: 826616808f2bf8e4da439ba0769c15ce, type: 3}
    - {fileID: 21300456, guid: 826616808f2bf8e4da439ba0769c15ce, type: 3}
    - {fileID: 21300458, guid: 826616808f2bf8e4da439ba0769c15ce, type: 3}
    - {fileID: 21300460, guid: 826616808f2bf8e4da439ba0769c15ce, type: 3}
    - {fileID: 21300462, guid: 826616808f2bf8e4da439ba0769c15ce, type: 3}
    - {fileID: 21300464, guid: 826616808f2bf8e4da439ba0769c15ce, type: 3}
    - {fileID: 21300466, guid: 826616808f2bf8e4da439ba0769c15ce, type: 3}
    - {fileID: 21300468, guid: 826616808f2bf8e4da439ba0769c15ce, type: 3}
    - {fileID: 21300470, guid: 826616808f2bf8e4da439ba0769c15ce, type: 3}
    - {fileID: 21300472, guid: 826616808f2bf8e4da439ba0769c15ce, type: 3}
    - {fileID: 21300474, guid: 826616808f2bf8e4da439ba0769c15ce, type: 3}
    - {fileID: 21300476, guid: 826616808f2bf8e4da439ba0769c15ce, type: 3}
    - {fileID: 21300478, guid: 826616808f2bf8e4da439ba0769c15ce, type: 3}
    - {fileID: 21300480, guid: 826616808f2bf8e4da439ba0769c15ce, type: 3}
    - {fileID: 21300482, guid: 826616808f2bf8e4da439ba0769c15ce, type: 3}
    - {fileID: 21300484, guid: 826616808f2bf8e4da439ba0769c15ce, type: 3}
    - {fileID: 21300486, guid: 826616808f2bf8e4da439ba0769c15ce, type: 3}
    - {fileID: 21300488, guid: 826616808f2bf8e4da439ba0769c15ce, type: 3}
    - {fileID: 21300490, guid: 826616808f2bf8e4da439ba0769c15ce, type: 3}
    - {fileID: 21300492, guid: 826616808f2bf8e4da439ba0769c15ce, type: 3}
    - {fileID: 21300494, guid: 826616808f2bf8e4da439ba0769c15ce, type: 3}
    - {fileID: 21300496, guid: 826616808f2bf8e4da439ba0769c15ce, type: 3}
    - {fileID: 21300498, guid: 826616808f2bf8e4da439ba0769c15ce, type: 3}
    - {fileID: 21300500, guid: 826616808f2bf8e4da439ba0769c15ce, type: 3}
    - {fileID: 21300502, guid: 826616808f2bf8e4da439ba0769c15ce, type: 3}
    - {fileID: 21300504, guid: 826616808f2bf8e4da439ba0769c15ce, type: 3}
    - {fileID: 21300506, guid: 826616808f2bf8e4da439ba0769c15ce, type: 3}
    - {fileID: 21300508, guid: 826616808f2bf8e4da439ba0769c15ce, type: 3}
    - {fileID: 21300510, guid: 826616808f2bf8e4da439ba0769c15ce, type: 3}
    - {fileID: 21300512, guid: 826616808f2bf8e4da439ba0769c15ce, type: 3}
    - {fileID: 21300514, guid: 826616808f2bf8e4da439ba0769c15ce, type: 3}
    - {fileID: 21300516, guid: 826616808f2bf8e4da439ba0769c15ce, type: 3}
    - {fileID: 21300518, guid: 826616808f2bf8e4da439ba0769c15ce, type: 3}
    - {fileID: 21300520, guid: 826616808f2bf8e4da439ba0769c15ce, type: 3}
    - {fileID: 21300522, guid: 826616808f2bf8e4da439ba0769c15ce, type: 3}
    - {fileID: 21300524, guid: 826616808f2bf8e4da439ba0769c15ce, type: 3}
    - {fileID: 21300526, guid: 826616808f2bf8e4da439ba0769c15ce, type: 3}
    - {fileID: 21300528, guid: 826616808f2bf8e4da439ba0769c15ce, type: 3}
    - {fileID: 21300530, guid: 826616808f2bf8e4da439ba0769c15ce, type: 3}
    - {fileID: 21300532, guid: 826616808f2bf8e4da439ba0769c15ce, type: 3}
    - {fileID: 21300534, guid: 826616808f2bf8e4da439ba0769c15ce, type: 3}
    - {fileID: 21300536, guid: 826616808f2bf8e4da439ba0769c15ce, type: 3}
    - {fileID: 21300538, guid: 826616808f2bf8e4da439ba0769c15ce, type: 3}
    - {fileID: 21300540, guid: 826616808f2bf8e4da439ba0769c15ce, type: 3}
    - {fileID: 21300542, guid: 826616808f2bf8e4da439ba0769c15ce, type: 3}
    - {fileID: 21300544, guid: 826616808f2bf8e4da439ba0769c15ce, type: 3}
    - {fileID: 21300546, guid: 826616808f2bf8e4da439ba0769c15ce, type: 3}
    - {fileID: 21300548, guid: 826616808f2bf8e4da439ba0769c15ce, type: 3}
    - {fileID: 21300550, guid: 826616808f2bf8e4da439ba0769c15ce, type: 3}
    - {fileID: 21300552, guid: 826616808f2bf8e4da439ba0769c15ce, type: 3}
    - {fileID: 21300554, guid: 826616808f2bf8e4da439ba0769c15ce, type: 3}
    - {fileID: 21300556, guid: 826616808f2bf8e4da439ba0769c15ce, type: 3}
    - {fileID: 21300558, guid: 826616808f2bf8e4da439ba0769c15ce, type: 3}
    - {fileID: 21300560, guid: 826616808f2bf8e4da439ba0769c15ce, type: 3}
    - {fileID: 21300562, guid: 826616808f2bf8e4da439ba0769c15ce, type: 3}
    - {fileID: 21300564, guid: 826616808f2bf8e4da439ba0769c15ce, type: 3}
    - {fileID: 21300566, guid: 826616808f2bf8e4da439ba0769c15ce, type: 3}
    - {fileID: 21300568, guid: 826616808f2bf8e4da439ba0769c15ce, type: 3}
    - {fileID: 21300570, guid: 826616808f2bf8e4da439ba0769c15ce, type: 3}
    - {fileID: 21300572, guid: 826616808f2bf8e4da439ba0769c15ce, type: 3}
    - {fileID: 21300574, guid: 826616808f2bf8e4da439ba0769c15ce, type: 3}
    - {fileID: 21300576, guid: 826616808f2bf8e4da439ba0769c15ce, type: 3}
    - {fileID: 21300578, guid: 826616808f2bf8e4da439ba0769c15ce, type: 3}
    - {fileID: 21300580, guid: 826616808f2bf8e4da439ba0769c15ce, type: 3}
    - {fileID: 21300582, guid: 826616808f2bf8e4da439ba0769c15ce, type: 3}
    - {fileID: 21300584, guid: 826616808f2bf8e4da439ba0769c15ce, type: 3}
    - {fileID: 21300586, guid: 826616808f2bf8e4da439ba0769c15ce, type: 3}
    - {fileID: 21300588, guid: 826616808f2bf8e4da439ba0769c15ce, type: 3}
    - {fileID: 21300590, guid: 826616808f2bf8e4da439ba0769c15ce, type: 3}
    - {fileID: 21300592, guid: 826616808f2bf8e4da439ba0769c15ce, type: 3}
    - {fileID: 21300594, guid: 826616808f2bf8e4da439ba0769c15ce, type: 3}
    - {fileID: 21300596, guid: 826616808f2bf8e4da439ba0769c15ce, type: 3}
    - {fileID: 21300598, guid: 826616808f2bf8e4da439ba0769c15ce, type: 3}
    - {fileID: 21300600, guid: 826616808f2bf8e4da439ba0769c15ce, type: 3}
    - {fileID: 21300602, guid: 826616808f2bf8e4da439ba0769c15ce, type: 3}
    - {fileID: 21300604, guid: 826616808f2bf8e4da439ba0769c15ce, type: 3}
    - {fileID: 21300606, guid: 826616808f2bf8e4da439ba0769c15ce, type: 3}
    - {fileID: 21300608, guid: 826616808f2bf8e4da439ba0769c15ce, type: 3}
    - {fileID: 21300610, guid: 826616808f2bf8e4da439ba0769c15ce, type: 3}
    - {fileID: 21300612, guid: 826616808f2bf8e4da439ba0769c15ce, type: 3}
    - {fileID: 21300614, guid: 826616808f2bf8e4da439ba0769c15ce, type: 3}
    - {fileID: 21300616, guid: 826616808f2bf8e4da439ba0769c15ce, type: 3}
    - {fileID: 21300618, guid: 826616808f2bf8e4da439ba0769c15ce, type: 3}
    - {fileID: 21300620, guid: 826616808f2bf8e4da439ba0769c15ce, type: 3}
    - {fileID: 21300622, guid: 826616808f2bf8e4da439ba0769c15ce, type: 3}
    - {fileID: 21300624, guid: 826616808f2bf8e4da439ba0769c15ce, type: 3}
    - {fileID: 21300626, guid: 826616808f2bf8e4da439ba0769c15ce, type: 3}
    - {fileID: 21300628, guid: 826616808f2bf8e4da439ba0769c15ce, type: 3}
    - {fileID: 21300630, guid: 826616808f2bf8e4da439ba0769c15ce, type: 3}
    - {fileID: 21300632, guid: 826616808f2bf8e4da439ba0769c15ce, type: 3}
    - {fileID: 21300634, guid: 826616808f2bf8e4da439ba0769c15ce, type: 3}
    - {fileID: 21300636, guid: 826616808f2bf8e4da439ba0769c15ce, type: 3}
    - {fileID: 21300638, guid: 826616808f2bf8e4da439ba0769c15ce, type: 3}
    - {fileID: 21300640, guid: 826616808f2bf8e4da439ba0769c15ce, type: 3}
    - {fileID: 21300642, guid: 826616808f2bf8e4da439ba0769c15ce, type: 3}
    - {fileID: 21300644, guid: 826616808f2bf8e4da439ba0769c15ce, type: 3}
    - {fileID: 21300646, guid: 826616808f2bf8e4da439ba0769c15ce, type: 3}
    - {fileID: 21300648, guid: 826616808f2bf8e4da439ba0769c15ce, type: 3}
    - {fileID: 21300650, guid: 826616808f2bf8e4da439ba0769c15ce, type: 3}
    - {fileID: 21300652, guid: 826616808f2bf8e4da439ba0769c15ce, type: 3}
    - {fileID: 21300654, guid: 826616808f2bf8e4da439ba0769c15ce, type: 3}
    - {fileID: 21300656, guid: 826616808f2bf8e4da439ba0769c15ce, type: 3}
    - {fileID: 21300658, guid: 826616808f2bf8e4da439ba0769c15ce, type: 3}
    - {fileID: 21300660, guid: 826616808f2bf8e4da439ba0769c15ce, type: 3}
    - {fileID: 21300662, guid: 826616808f2bf8e4da439ba0769c15ce, type: 3}
    - {fileID: 21300664, guid: 826616808f2bf8e4da439ba0769c15ce, type: 3}
    - {fileID: 21300666, guid: 826616808f2bf8e4da439ba0769c15ce, type: 3}
    - {fileID: 21300668, guid: 826616808f2bf8e4da439ba0769c15ce, type: 3}
    - {fileID: 21300670, guid: 826616808f2bf8e4da439ba0769c15ce, type: 3}
    - {fileID: 21300672, guid: 826616808f2bf8e4da439ba0769c15ce, type: 3}
    - {fileID: 21300674, guid: 826616808f2bf8e4da439ba0769c15ce, type: 3}
    - {fileID: 21300676, guid: 826616808f2bf8e4da439ba0769c15ce, type: 3}
    - {fileID: 21300678, guid: 826616808f2bf8e4da439ba0769c15ce, type: 3}
    - {fileID: 21300680, guid: 826616808f2bf8e4da439ba0769c15ce, type: 3}
    - {fileID: 21300682, guid: 826616808f2bf8e4da439ba0769c15ce, type: 3}
    - {fileID: 21300684, guid: 826616808f2bf8e4da439ba0769c15ce, type: 3}
    - {fileID: 21300686, guid: 826616808f2bf8e4da439ba0769c15ce, type: 3}
    - {fileID: 21300688, guid: 826616808f2bf8e4da439ba0769c15ce, type: 3}
    - {fileID: 21300690, guid: 826616808f2bf8e4da439ba0769c15ce, type: 3}
    - {fileID: 21300692, guid: 826616808f2bf8e4da439ba0769c15ce, type: 3}
    - {fileID: 21300694, guid: 826616808f2bf8e4da439ba0769c15ce, type: 3}
    - {fileID: 21300696, guid: 826616808f2bf8e4da439ba0769c15ce, type: 3}
    - {fileID: 21300698, guid: 826616808f2bf8e4da439ba0769c15ce, type: 3}
    - {fileID: 21300700, guid: 826616808f2bf8e4da439ba0769c15ce, type: 3}
    - {fileID: 21300702, guid: 826616808f2bf8e4da439ba0769c15ce, type: 3}
    - {fileID: 21300704, guid: 826616808f2bf8e4da439ba0769c15ce, type: 3}
    - {fileID: 21300706, guid: 826616808f2bf8e4da439ba0769c15ce, type: 3}
    - {fileID: 21300708, guid: 826616808f2bf8e4da439ba0769c15ce, type: 3}
    - {fileID: 21300710, guid: 826616808f2bf8e4da439ba0769c15ce, type: 3}
  m_AnimationClipSettings:
    serializedVersion: 2
    m_AdditiveReferencePoseClip: {fileID: 0}
    m_AdditiveReferencePoseTime: 0
    m_StartTime: 0
    m_StopTime: 5.933356
    m_OrientationOffsetY: 0
    m_Level: 0
    m_CycleOffset: 0
    m_HasAdditiveReferencePose: 0
    m_LoopTime: 1
    m_LoopBlend: 0
    m_LoopBlendOrientation: 0
    m_LoopBlendPositionY: 0
    m_LoopBlendPositionXZ: 0
    m_KeepOriginalOrientation: 0
    m_KeepOriginalPositionY: 1
    m_KeepOriginalPositionXZ: 0
    m_HeightFromFeet: 0
    m_Mirror: 0
  m_EditorCurves: []
  m_EulerEditorCurves: []
  m_HasGenericRootTransform: 0
  m_HasMotionFloatCurves: 0
  m_GenerateMotionCurves: 0
  m_Events: []
